%YAML 1.1
%TAG !u! tag:unity3d.com,2011:
--- !u!114 &11400000
MonoBehaviour:
  m_ObjectHideFlags: 0
  m_CorrespondingSourceObject: {fileID: 0}
  m_PrefabInstance: {fileID: 0}
  m_PrefabAsset: {fileID: 0}
  m_GameObject: {fileID: 0}
  m_Enabled: 1
  m_EditorHideFlags: 0
  m_Script: {fileID: 11500000, guid: 13b75c95f34a00d4e8c04f76b73312e6, type: 3}
  m_Name: ShootingStarTileset
  m_EditorClassIdentifier: 
  m_AnimatedSprites:
  - {fileID: -1750559015080959364, guid: 1b5ccf97db9a32c408f92f0e773b8bfa, type: 3}
  - {fileID: 5097427417170848326, guid: 1b5ccf97db9a32c408f92f0e773b8bfa, type: 3}
  - {fileID: -7832311200584198081, guid: 1b5ccf97db9a32c408f92f0e773b8bfa, type: 3}
  - {fileID: -1789887714271847416, guid: 1b5ccf97db9a32c408f92f0e773b8bfa, type: 3}
  - {fileID: -2767186041196030324, guid: 1b5ccf97db9a32c408f92f0e773b8bfa, type: 3}
  - {fileID: -1169483118600578624, guid: 1b5ccf97db9a32c408f92f0e773b8bfa, type: 3}
  - {fileID: -8503242987984062234, guid: 1b5ccf97db9a32c408f92f0e773b8bfa, type: 3}
  m_MinSpeed: 3
  m_MaxSpeed: 4
  m_AnimationStartTime: 0
  m_TileColliderType: 0
